{
  "id": "9a90bf75-e1ae-456b-b5b6-cce401844899",
  "name": "server",
  "values": [
    {
      "key": "url",
      "value": "http://192.168.1.90:8080/pipelineOptimization/restapi",
      "enabled": true
    },
    {
      "key": "webUrl",
      "value": "http://192.168.1.90:8080/pipelineOptimization/jsf/pages/welcomePage.xhtml",
      "enabled": true
    }
  ],
  "_postman_variable_scope": "environment",
  "_postman_exported_at": "2020-12-04T17:25:07.119Z",
  "_postman_exported_using": "Postman/7.36.0"
}
